An Example Workflow – RchaeoStats
…
Now say we’re only interested in rows related to “KSN” and “ABM”. That means we want to filter all rows where Site is “KSN” or “ABM”.

filter(
  sheep_data,
  Site == "KSN" | # or
    Site == "ABM"
)

# A tibble: 105 × 9
   specID Taxon Site  Zone    Period group    GLl    Bd    Dl
    <dbl> <chr> <chr> <chr>   <chr>  <chr>  <dbl> <dbl> <dbl>
 1     25 sheep KSN   Coastal PER    Keisan  32    19.9  17.7
 2     26 sheep KSN   Coastal PER    Keisan  30.7  19.7  18  
 3     27 sheep KSN   Coastal IA2    Keisan  28.6  18.3  16.5
 4     28 sheep KSN   Coastal IA2    Keisan  31.3  20.4  16.9
 5     29 sheep KSN   Coastal PER    Keisan  29.5  18.3  15.8
 6     31 sheep KSN   Coastal PER    Keisan  33    22.1  18.8
 7     32 sheep KSN   Coastal PER    Keisan  32.2  21    18.3
 8     33 sheep KSN   Coastal IA2    Keisan  32    20.4  17.1
 9     34 sheep KSN   Coastal PER    Keisan  30.6  20.1  17.3
10     35 sheep KSN   Coastal PER    Keisan  33.7  20.9  18.7
# ℹ 95 more rows
…
Whenever a value is TRUE, that row will be retained, and whenever it is FALSE, that row will be removed.

We can then arrange the data frame in ascending or descending order of GLl.

arrange(filtered_site, GLl) # ascending

# A tibble: 105 × 9
   specID Taxon Site  Zone    Period group    GLl    Bd    Dl
    <dbl> <chr> <chr> <chr>   <chr>  <chr>  <dbl> <dbl> <dbl>
 1     86 sheep ABM   Inland  IA2    ABM     27.4  17.3  14.7
 2     97 sheep ABM   Inland  IA2    ABM     27.5  18.4  14.9
 3    119 sheep ABM   Inland  IA2    ABM     27.8  18.4  14.9
 4     67 sheep ABM   Inland  IA2    ABM     28    17.7  15.5
 5     98 sheep ABM   Inland  IA2    ABM     28    18.6  15.1
 6    127 sheep ABM   Inland  IA2    ABM     28.2  17.5  14.6
 7    107 sheep ABM   Inland  IA2    ABM     28.3  18.7  15.2
 8    134 sheep ABM   Inland  IA2    ABM     28.3  18.8  15.1
 9     36 sheep KSN   Coastal PER    Keisan  28.5  17.3  16  
10     68 sheep ABM   Inland  IA2    ABM     28.5  18.8  15.8
# ℹ 95 more rows

arrange(filtered_site, desc(GLl)) # descending

# A tibble: 105 × 9
   specID Taxon Site  Zone    Period group    GLl    Bd    Dl
    <dbl> <chr> <chr> <chr>   <chr>  <chr>  <dbl> <dbl> <dbl>
 1    126 sheep ABM   Inland  IA2    ABM     34.6  21.1  18.1
 2    104 sheep ABM   Inland  IA2    ABM     34.4  21.4  17.9
 3     43 sheep KSN   Coastal PER    Keisan  33.9  21.9  20.7
 4     35 sheep KSN   Coastal PER    Keisan  33.7  20.9  18.7
 5    129 sheep ABM   Inland  IA2    ABM     33.2  21.2  17.6
 6     31 sheep KSN   Coastal PER    Keisan  33    22.1  18.8
 7     37 sheep KSN   Coastal PER    Keisan  32.8  21.7  18.7
 8     38 sheep KSN   Coastal IA2    Keisan  32.7  20.8  18.9
 9     89 sheep ABM   Inland  IA2    ABM     32.6  19.2  16.7
10     71 sheep ABM   Inland  IA2    ABM     32.4  20.1  16.9
# ℹ 95 more rows

Transforming columns

The most common functions for transforming columns are:

mutate

select

The mutate function allows us to add variables. These can be variables with values that we define, or calculated from other variables. For example, we could create a variable containing the name of the dataset:

mutate(filtered_site, dataset = "Sheep Astragali")

# A tibble: 105 × 10
   specID Taxon Site  Zone    Period group    GLl    Bd    Dl dataset        
    <dbl> <chr> <chr> <chr>   <chr>  <chr>  <dbl> <dbl> <dbl> <chr>          
 1     25 sheep KSN   Coastal PER    Keisan  32    19.9  17.7 Sheep Astragali
 2     26 sheep KSN   Coastal PER    Keisan  30.7  19.7  18   Sheep Astragali
 3     27 sheep KSN   Coastal IA2    Keisan  28.6  18.3  16.5 Sheep Astragali
 4     28 sheep KSN   Coastal IA2    Keisan  31.3  20.4  16.9 Sheep Astragali
 5     29 sheep KSN   Coastal PER    Keisan  29.5  18.3  15.8 Sheep Astragali
 6     31 sheep KSN   Coastal PER    Keisan  33    22.1  18.8 Sheep Astragali
 7     32 sheep KSN   Coastal PER    Keisan  32.2  21    18.3 Sheep Astragali
 8     33 sheep KSN   Coastal IA2    Keisan  32    20.4  17.1 Sheep Astragali
 9     34 sheep KSN   Coastal PER    Keisan  30.6  20.1  17.3 Sheep Astragali
10     35 sheep KSN   Coastal PER    Keisan  33.7  20.9  18.7 Sheep Astragali
# ℹ 95 more rows
…
We are starting to produce a lot of intermediate data frames, which will end up taking up memory. Not a lot in this case, but if we were working with a large dataset, it might not be insignificant.

The pipe, |> is an operator that allows us to string together multiple functions/operations on the same data, without the need to use the data argument in each step, and without the need to create intermediate objects.

Choosing a pipe

As of R version 4.1.0, there are now two pipe operators. The ‘native’ pipe, |> and the {magrittr} pipe, %>%. They are very similar but differ in some key areas. For more information, see this blog post Here we will be using the native pipe since it doesn’t require installing additional packages (although {magrittr} is part of the tidyverse and many packages import the magrittr pipe).

To recreate the previous steps using the pipe:

sheep_data |> # we take our data, and then
  filter(Site != "DOR") |> # filter, and then
  mutate(Dl_GLl = Dl / GLl * 100) # create a new variable

# A tibble: 105 × 10
   specID Taxon Site  Zone    Period group    GLl    Bd    Dl Dl_GLl
    <dbl> <chr> <chr> <chr>   <chr>  <chr>  <dbl> <dbl> <dbl>  <dbl>
 1     25 sheep KSN   Coastal PER    Keisan  32    19.9  17.7   55.3
 2     26 sheep KSN   Coastal PER    Keisan  30.7  19.7  18     58.6
 3     27 sheep KSN   Coastal IA2    Keisan  28.6  18.3  16.5   57.7
 4     28 sheep KSN   Coastal IA2    Keisan  31.3  20.4  16.9   54.0
 5     29 sheep KSN   Coastal PER    Keisan  29.5  18.3  15.8   53.6
 6     31 sheep KSN   Coastal PER    Keisan  33    22.1  18.8   57.0
 7     32 sheep KSN   Coastal PER    Keisan  32.2  21    18.3   56.8
 8     33 sheep KSN   Coastal IA2    Keisan  32    20.4  17.1   53.4
 9     34 sheep KSN   Coastal PER    Keisan  30.6  20.1  17.3   56.5
10     35 sheep KSN   Coastal PER    Keisan  33.7  20.9  18.7   55.5
# ℹ 95 more rows
…
GIPHY

First we take our data frame, and then we filter() on the Site variable, and then we take the output (the data frame we originally called filtered_site) from that operation and pipe it to .data argument in the next mutate() operation to create the new variable Dl_GLl. The output of these operations is the same as the dim_index data frame.

The select() function allows us to… well, select columns of the data frame that we want to keep (or not keep). We do this by providing the name(s) of the column(s) we want to select.

select(sheep_data, specID, Site, GLl, Dl)

# A tibble: 119 × 4
   specID Site    GLl    Dl
    <dbl> <chr> <dbl> <dbl>
 1      9 DOR    31.5  18.2
 2     10 DOR    29.3  16.8
 3     11 DOR    28.2  15.9
 4     12 DOR    29    16.5
 5     13 DOR    29.8  16.4
 6     14 DOR    30.6  16.6
 7     15 DOR    30.4  16.3
 8     16 DOR    30.7  16.3
 9     17 DOR    30.7  17.7
10     19 DOR    31.3  18  
# ℹ 109 more rows

We could also use the position of the columns:

select(sheep_data, 1, 3, 7, 9)

# A tibble: 119 × 4
   specID Site    GLl    Dl
    <dbl> <chr> <dbl> <dbl>
 1      9 DOR    31.5  18.2
 2     10 DOR    29.3  16.8
 3     11 DOR    28.2  15.9
 4     12 DOR    29    16.5
 5     13 DOR    29.8  16.4
 6     14 DOR    30.6  16.6
 7     15 DOR    30.4  16.3
 8     16 DOR    30.7  16.3
 9     17 DOR    30.7  17.7
10     19 DOR    31.3  18  
# ℹ 109 more rows

Negating columns we don’t want is possible, and may sometimes be the easier option.

select(sheep_data, !c(Taxon, Zone, Period, group, Bd))

# A tibble: 119 × 4
   specID Site    GLl    Dl
    <dbl> <chr> <dbl> <dbl>
 1      9 DOR    31.5  18.2
 2     10 DOR    29.3  16.8
 3     11 DOR    28.2  15.9
 4     12 DOR    29    16.5
 5     13 DOR    29.8  16.4
 6     14 DOR    30.6  16.6
 7     15 DOR    30.4  16.3
 8     16 DOR    30.7  16.3
 9     17 DOR    30.7  17.7
10     19 DOR    31.3  18  
# ℹ 109 more rows
…
Grouping and summarising data

In many situations you’ll want to summarise data and calculate summary statistics for different groups. The dplyr functions summarise/summarize and group_by will help you do that.

dimension_data |>
  group_by(Site)

# A tibble: 105 × 7
# Groups:   Site [2]
   specID Site    GLl    Bd    Dl Dl_GLl Bd_Dl
    <dbl> <chr> <dbl> <dbl> <dbl>  <dbl> <dbl>
 1     25 KSN    32    19.9  17.7   55.3  112.
 2     26 KSN    30.7  19.7  18     58.6  109.
 3     27 KSN    28.6  18.3  16.5   57.7  111.
 4     28 KSN    31.3  20.4  16.9   54.0  121.
 5     29 KSN    29.5  18.3  15.8   53.6  116.
 6     31 KSN    33    22.1  18.8   57.0  118.
 7     32 KSN    32.2  21    18.3   56.8  115.
 8     33 KSN    32    20.4  17.1   53.4  119.
 9     34 KSN    30.6  20.1  17.3   56.5  116.
10     35 KSN    33.7  20.9  18.7   55.5  112.
# ℹ 95 more rows
…
