Cleaning data with tidyverse – RchaeoStats
…
It’s also possible to index a column using the name of the column,

raw_data["Length"]

# A tibble: 125 × 1
   Length
   <chr> 
 1 115   
 2 102   
 3 104   
 4 130   
 5 140   
 6 70    
 7 85+   
 8 130   
 9 100   
10 130   
# ℹ 115 more rows

or the position. Because a data frame is two-dimensional, the position needs two values, the row number(s) and column number(s), respectively. To index all rows, leave it blank.

raw_data[,6] # all rows, column 6

# A tibble: 125 × 1
   Length
   <chr> 
 1 115   
 2 102   
 3 104   
 4 130   
 5 140   
 6 70    
 7 85+   
 8 130   
 9 100   
10 130   
# ℹ 115 more rows
…
Instead of a single value we can use a function or equation to calculate a new variable. And instead of creating a new variable, we can provide the name of an existing column instead of using a new name. There are a few common issues with multiple variables that we can fix.

For example, to modify the Glass_bead variable, we can combine mutate and if_else functions to determine what the new values should be based on whether a value matches a certain condition.

mutate(
  renamed_data,                          # the data
  Glass_bead = if_else(                  # the new/existing variable and function
    condition = Glass_bead == "shatter", # the condition
    true = NA,                           # the new value for matches
    false = Glass_bead                   # the new value for non-matches
  )
) 

# A tibble: 125 × 55
   Layer ID    Burial_axis Degree_axis Condition Length Width Height Pit  
   <dbl> <chr>       <dbl>       <dbl>     <dbl> <chr>  <chr>  <dbl> <chr>
 1     1 0               1         290         3 115    70        NA P9   
 2     1 1               1         295         2 102    60        30 P051 
 3     1 2               1         290         2 104    75        60 P051 
 4     1 3               1         290         1 130    82        60 P050 
 5     1 4               1         300         2 140    73        30 P038 
 6     1 5               1         285         2 70     50        35 P050 
 7     1 6               1         310         3 85+    55        13 P038 
 8     1 7               1         290         2 130    60        29 P028 
 9     1 8               1         295         2 100    58        15 P038 
10     1 9               1         300         1 130    70        60 P052 
# ℹ 115 more rows
# ℹ 46 more variables: sampled <chr>, start_layer <dbl>, start_depth <dbl>,
#   end_depth <dbl>, start_depth_sure <chr>, old_layer <dbl>, Phase <chr>,
#   Coffin <dbl>, Straw_mat <dbl>, Gender <dbl>, Age <chr>, Agate_bead <dbl>,
#   Golden_bead <dbl>, Glass_bead <chr>, IndoPacific_bead <chr>,
#   Glass_earring <dbl>, Big_Metal_ring <dbl>, Small_Metal_ring <dbl>,
#   Wide_Metal_ring <dbl>, Metal_ring <dbl>, Bell <dbl>, Knit <lgl>, …
…
case_when() allows us to introduce multiple conditions, and works in a similar way to if_else(). It takes a condition on the left-hand side (LHS), and a value on the right-hand side (RHS), and a .default value for any values that don’t satisfy any of the provided conditions.

case_when(condition ~ value, .default = value)

mutate(
  renamed_data,
  IndoPacicific_bead = case_when(
    IndoPacific_bead == "cluster" ~ NA,       # first condition, LHS ~ RHS
    IndoPacific_bead == "unsure number" ~ NA, # second condition, LHS ~ RHS
    .default = IndoPacific_bead               # for non-matches
  ) 
)

# A tibble: 125 × 56
   Layer ID    Burial_axis Degree_axis Condition Length Width Height Pit  
   <dbl> <chr>       <dbl>       <dbl>     <dbl> <chr>  <chr>  <dbl> <chr>
 1     1 0               1         290         3 115    70        NA P9   
 2     1 1               1         295         2 102    60        30 P051 
 3     1 2               1         290         2 104    75        60 P051 
 4     1 3               1         290         1 130    82        60 P050 
 5     1 4               1         300         2 140    73        30 P038 
 6     1 5               1         285         2 70     50        35 P050 
 7     1 6               1         310         3 85+    55        13 P038 
 8     1 7               1         290         2 130    60        29 P028 
 9     1 8               1         295         2 100    58        15 P038 
10     1 9               1         300         1 130    70        60 P052 
# ℹ 115 more rows
# ℹ 47 more variables: sampled <chr>, start_layer <dbl>, start_depth <dbl>,
#   end_depth <dbl>, start_depth_sure <chr>, old_layer <dbl>, Phase <chr>,
#   Coffin <dbl>, Straw_mat <dbl>, Gender <dbl>, Age <chr>, Agate_bead <dbl>,
#   Golden_bead <dbl>, Glass_bead <chr>, IndoPacific_bead <chr>,
#   Glass_earring <dbl>, Big_Metal_ring <dbl>, Small_Metal_ring <dbl>,
#   Wide_Metal_ring <dbl>, Metal_ring <dbl>, Bell <dbl>, Knit <lgl>, …
…
# no need to subset Width from the data frame within str_remove()

The Length variable requires exactly the same fix, so we can just repeat the same code with the Length variable.

mutate(
  renamed_data,
  Width = str_remove(Width, "\\+"),
  Length = str_remove(Length, "\\+")
)

# A tibble: 125 × 55
   Layer ID    Burial_axis Degree_axis Condition Length Width Height Pit  
   <dbl> <chr>       <dbl>       <dbl>     <dbl> <chr>  <chr>  <dbl> <chr>
 1     1 0               1         290         3 115    70        NA P9   
 2     1 1               1         295         2 102    60        30 P051 
 3     1 2               1         290         2 104    75        60 P051 
 4     1 3               1         290         1 130    82        60 P050 
 5     1 4               1         300         2 140    73        30 P038 
 6     1 5               1         285         2 70     50        35 P050 
 7     1 6               1         310         3 85     55        13 P038 
 8     1 7               1         290         2 130    60        29 P028 
 9     1 8               1         295         2 100    58        15 P038 
10     1 9               1         300         1 130    70        60 P052 
# ℹ 115 more rows
# ℹ 46 more variables: sampled <chr>, start_layer <dbl>, start_depth <dbl>,
#   end_depth <dbl>, start_depth_sure <chr>, old_layer <dbl>, Phase <chr>,
#   Coffin <dbl>, Straw_mat <dbl>, Gender <dbl>, Age <chr>, Agate_bead <dbl>,
#   Golden_bead <dbl>, Glass_bead <chr>, IndoPacific_bead <chr>,
#   Glass_earring <dbl>, Big_Metal_ring <dbl>, Small_Metal_ring <dbl>,
#   Wide_Metal_ring <dbl>, Metal_ring <dbl>, Bell <dbl>, Knit <lgl>, …
…
    )
   ) |> # mutate Glass_bead, and then...
  mutate(
    IndoPacific_bead = case_when(
      IndoPacific_bead == "cluster" ~ NA,
      IndoPacific_bead == "unsure number" ~ NA,
      .default = IndoPacific_bead
    )
  ) |> # mutate IndoPacific_bead, and then...
  mutate(
    Width = str_remove(Width, "\\+"),
    Length = str_remove(Length, "\\+")
  ) # mutate Width and Length

# A tibble: 125 × 55
   Layer ID    Burial_axis Degree_axis Condition Length Width Height Pit  
   <dbl> <chr>       <dbl>       <dbl>     <dbl> <chr>  <chr>  <dbl> <chr>
 1     1 0               1         290         3 115    70        NA P9   
 2     1 1               1         295         2 102    60        30 P051 
 3     1 2               1         290         2 104    75        60 P051 
 4     1 3               1         290         1 130    82        60 P050 
 5     1 4               1         300         2 140    73        30 P038 
 6     1 5               1         285         2 70     50        35 P050 
 7     1 6               1         310         3 85     55        13 P038 
 8     1 7               1         290         2 130    60        29 P028 
 9     1 8               1         295         2 100    58        15 P038 
10     1 9               1         300         1 130    70        60 P052 
# ℹ 115 more rows
# ℹ 46 more variables: sampled <chr>, start_layer <dbl>, start_depth <dbl>,
#   end_depth <dbl>, start_depth_sure <chr>, old_layer <dbl>, Phase <chr>,
#   Coffin <dbl>, Straw_mat <dbl>, Gender <dbl>, Age <chr>, Agate_bead <dbl>,
#   Golden_bead <dbl>, Glass_bead <chr>, IndoPacific_bead <chr>,
#   Glass_earring <dbl>, Big_Metal_ring <dbl>, Small_Metal_ring <dbl>,
#   Wide_Metal_ring <dbl>, Metal_ring <dbl>, Bell <dbl>, Knit <lgl>, …
…
    Glass_bead = if_else( # mutate Glass_bead
      condition = Glass_bead == "shatter",
      true = NA,
      false = Glass_bead
    ), # and then take the new data frame and pipe it to
    IndoPacific_bead = case_when( # and Indo-Pacific_bead
      IndoPacific_bead == "cluster" ~ NA,
      IndoPacific_bead == "unsure number" ~ NA,
      .default = IndoPacific_bead
    ),
    Width = str_remove(Width, "\\+"),
    Length = str_remove(Length, "\\+")
  )

# A tibble: 125 × 55
   Layer ID    Burial_axis Degree_axis Condition Length Width Height Pit  
   <dbl> <chr>       <dbl>       <dbl>     <dbl> <chr>  <chr>  <dbl> <chr>
 1     1 0               1         290         3 115    70        NA P9   
 2     1 1               1         295         2 102    60        30 P051 
 3     1 2               1         290         2 104    75        60 P051 
 4     1 3               1         290         1 130    82        60 P050 
 5     1 4               1         300         2 140    73        30 P038 
 6     1 5               1         285         2 70     50        35 P050 
 7     1 6               1         310         3 85     55        13 P038 
 8     1 7               1         290         2 130    60        29 P028 
 9     1 8               1         295         2 100    58        15 P038 
10     1 9               1         300         1 130    70        60 P052 
# ℹ 115 more rows
# ℹ 46 more variables: sampled <chr>, start_layer <dbl>, start_depth <dbl>,
#   end_depth <dbl>, start_depth_sure <chr>, old_layer <dbl>, Phase <chr>,
#   Coffin <dbl>, Straw_mat <dbl>, Gender <dbl>, Age <chr>, Agate_bead <dbl>,
#   Golden_bead <dbl>, Glass_bead <chr>, IndoPacific_bead <chr>,
#   Glass_earring <dbl>, Big_Metal_ring <dbl>, Small_Metal_ring <dbl>,
#   Wide_Metal_ring <dbl>, Metal_ring <dbl>, Bell <dbl>, Knit <lgl>, …
…
      .default = IndoPacific_bead
    )
  ) |> # mutate IndoPacific_bead, and then...
  mutate(
    Width = str_remove(Width, "\\+"),
    Length = str_remove(Length, "\\+")
  ) |> # mutate Width and Length
  mutate(
    across(
      .cols = c(Glass_bead, IndoPacific_bead, Width, Length),
      .fns = as.numeric
    )
  )

# A tibble: 125 × 55
   Layer ID    Burial_axis Degree_axis Condition Length Width Height Pit  
   <dbl> <chr>       <dbl>       <dbl>     <dbl>  <dbl> <dbl>  <dbl> <chr>
 1     1 0               1         290         3    115    70     NA P9   
 2     1 1               1         295         2    102    60     30 P051 
 3     1 2               1         290         2    104    75     60 P051 
 4     1 3               1         290         1    130    82     60 P050 
 5     1 4               1         300         2    140    73     30 P038 
 6     1 5               1         285         2     70    50     35 P050 
 7     1 6               1         310         3     85    55     13 P038 
 8     1 7               1         290         2    130    60     29 P028 
 9     1 8               1         295         2    100    58     15 P038 
10     1 9               1         300         1    130    70     60 P052 
# ℹ 115 more rows
# ℹ 46 more variables: sampled <chr>, start_layer <dbl>, start_depth <dbl>,
#   end_depth <dbl>, start_depth_sure <chr>, old_layer <dbl>, Phase <chr>,
#   Coffin <dbl>, Straw_mat <dbl>, Gender <dbl>, Age <chr>, Agate_bead <dbl>,
#   Golden_bead <dbl>, Glass_bead <dbl>, IndoPacific_bead <dbl>,
#   Glass_earring <dbl>, Big_Metal_ring <dbl>, Small_Metal_ring <dbl>,
#   Wide_Metal_ring <dbl>, Metal_ring <dbl>, Bell <dbl>, Knit <lgl>, …
…
