EDA: Transforming data with tidyverse – RchaeoStats
…
library(tidyverse)
library(here)

mortuary_data <- read_csv(here("data/mortuary_clean.csv"))

Subsetting data

The two main functions for subsetting data are select() and filter().

select() allows us to select columns (yes, they nailed the name).

# by name
select(mortuary_data, Golden_bead)

# A tibble: 125 × 1
   Golden_bead
         <dbl>
 1          NA
 2          NA
 3          NA
 4           5
 5           2
 6           2
 7          NA
 8           2
 9          NA
10           2
# ℹ 115 more rows

# multiple names
select(mortuary_data, Golden_bead, Glass_bead)

# A tibble: 125 × 2
   Golden_bead Glass_bead
         <dbl>      <dbl>
 1          NA         NA
 2          NA         NA
 3          NA         NA
 4           5         NA
 5           2         NA
 6           2         NA
 7          NA          1
 8           2          1
 9          NA         NA
10           2         NA
# ℹ 115 more rows

# or (as before) position
select(mortuary_data, c(22,23))

# A tibble: 125 × 2
   Golden_bead Glass_bead
         <dbl>      <dbl>
 1          NA         NA
 2          NA         NA
 3          NA         NA
 4           5         NA
 5           2         NA
 6           2         NA
 7          NA          1
 8           2          1
 9          NA         NA
10           2         NA
# ℹ 115 more rows
…
Artwork by @allison_horst.

filter() allows you to filter entries/rows based on certain conditions. If we wanted to only show the data that are associated with graves prior European arrival (Phase == "pre"):

filter(mortuary_data, Phase == "pre")

# A tibble: 29 × 55
   Layer ID    Burial_axis Degree_axis Condition Length Width Height Pit  
   <dbl> <chr>       <dbl>       <dbl>     <dbl>  <dbl> <dbl>  <dbl> <chr>
 1     1 0               1         290         3    115    70     NA P9   
 2     1 6               1         310         3     85    55     13 P038 
 3     1 8               1         295         2    100    58     15 P038 
 4     1 12              2          NA         3     NA    NA      9 P038 
 5     1 21              1         290         2    105    47     22 P050 
 6     1 25              1         295         1     95    45     37 P061 
 7     1 27              1         315         3    115    80     20 P047 
 8     1 28              1         305         2    105    45     28 P058 
 9     1 32              1         305         1    140    58     50 P071 
10     1 34              1         305         2    102    60     45 P018 
# ℹ 19 more rows
# ℹ 46 more variables: sampled <chr>, start_layer <dbl>, start_depth <dbl>,
#   end_depth <dbl>, start_depth_sure <chr>, old_layer <dbl>, Phase <chr>,
#   Coffin <dbl>, Straw_mat <dbl>, Gender <dbl>, Age <chr>, Agate_bead <dbl>,
#   Golden_bead <dbl>, Glass_bead <dbl>, IndoPacific_bead <dbl>,
#   Glass_earring <dbl>, Big_Metal_ring <dbl>, Small_Metal_ring <dbl>,
#   Wide_Metal_ring <dbl>, Metal_ring <dbl>, Bell <dbl>, Knit <lgl>, …
…
filter(mortuary_data, start_layer != 5) # only values that are NOT equal to 5

# A tibble: 81 × 55
   Layer ID    Burial_axis Degree_axis Condition Length Width Height Pit  
   <dbl> <chr>       <dbl>       <dbl>     <dbl>  <dbl> <dbl>  <dbl> <chr>
 1     1 1               1         295         2    102    60     30 P051 
 2     1 2               1         290         2    104    75     60 P051 
 3     1 3               1         290         1    130    82     60 P050 
 4     1 4               1         300         2    140    73     30 P038 
 5     1 5               1         285         2     70    50     35 P050 
 6     1 6               1         310         3     85    55     13 P038 
 7     1 7               1         290         2    130    60     29 P028 
 8     1 9               1         300         1    130    70     60 P052 
 9     1 11              1         300         2     90    60     40 P060 
10     1 15              1         290         2     95    60     27 P040 
# ℹ 71 more rows
# ℹ 46 more variables: sampled <chr>, start_layer <dbl>, start_depth <dbl>,
#   end_depth <dbl>, start_depth_sure <chr>, old_layer <dbl>, Phase <chr>,
#   Coffin <dbl>, Straw_mat <dbl>, Gender <dbl>, Age <chr>, Agate_bead <dbl>,
#   Golden_bead <dbl>, Glass_bead <dbl>, IndoPacific_bead <dbl>,
#   Glass_earring <dbl>, Big_Metal_ring <dbl>, Small_Metal_ring <dbl>,
#   Wide_Metal_ring <dbl>, Metal_ring <dbl>, Bell <dbl>, Knit <lgl>, …

filter(mortuary_data, start_layer > 5) # only values that are greater than 5

# A tibble: 33 × 55
   Layer ID    Burial_axis Degree_axis Condition Length Width Height Pit  
   <dbl> <chr>       <dbl>       <dbl>     <dbl>  <dbl> <dbl>  <dbl> <chr>
 1     1 1               1         295         2    102    60     30 P051 
 2     1 2               1         290         2    104    75     60 P051 
 3     1 3               1         290         1    130    82     60 P050 
 4     1 5               1         285         2     70    50     35 P050 
 5     1 7               1         290         2    130    60     29 P028 
 6     1 9               1         300         1    130    70     60 P052 
 7     1 11              1         300         2     90    60     40 P060 
 8     1 15              1         290         2     95    60     27 P040 
 9     1 16              1         300         1     76    45     37 P072 
10     1 17              1         292         2    100    60     30 P028 
# ℹ 23 more rows
# ℹ 46 more variables: sampled <chr>, start_layer <dbl>, start_depth <dbl>,
#   end_depth <dbl>, start_depth_sure <chr>, old_layer <dbl>, Phase <chr>,
#   Coffin <dbl>, Straw_mat <dbl>, Gender <dbl>, Age <chr>, Agate_bead <dbl>,
#   Golden_bead <dbl>, Glass_bead <dbl>, IndoPacific_bead <dbl>,
#   Glass_earring <dbl>, Big_Metal_ring <dbl>, Small_Metal_ring <dbl>,
#   Wide_Metal_ring <dbl>, Metal_ring <dbl>, Bell <dbl>, Knit <lgl>, …

filter(mortuary_data, start_layer > 5 & start_layer <= 12) # only values that are greater than 5 AND (&) less than, or equal to 12

# A tibble: 31 × 55
   Layer ID    Burial_axis Degree_axis Condition Length Width Height Pit  
   <dbl> <chr>       <dbl>       <dbl>     <dbl>  <dbl> <dbl>  <dbl> <chr>
 1     1 2               1         290         2    104    75     60 P051 
 2     1 3               1         290         1    130    82     60 P050 
 3     1 5               1         285         2     70    50     35 P050 
 4     1 7               1         290         2    130    60     29 P028 
 5     1 9               1         300         1    130    70     60 P052 
 6     1 11              1         300         2     90    60     40 P060 
 7     1 15              1         290         2     95    60     27 P040 
 8     1 16              1         300         1     76    45     37 P072 
 9     1 17              1         292         2    100    60     30 P028 
10     1 18              1         280         2    110    70     24 P061 
# ℹ 21 more rows
# ℹ 46 more variables: sampled <chr>, start_layer <dbl>, start_depth <dbl>,
#   end_depth <dbl>, start_depth_sure <chr>, old_layer <dbl>, Phase <chr>,
#   Coffin <dbl>, Straw_mat <dbl>, Gender <dbl>, Age <chr>, Agate_bead <dbl>,
#   Golden_bead <dbl>, Glass_bead <dbl>, IndoPacific_bead <dbl>,
#   Glass_earring <dbl>, Big_Metal_ring <dbl>, Small_Metal_ring <dbl>,
#   Wide_Metal_ring <dbl>, Metal_ring <dbl>, Bell <dbl>, Knit <lgl>, …

filter(mortuary_data, start_layer > 5 | start_layer < 12) # only values that are greater than 5 OR (|) less than 12

# A tibble: 90 × 55
   Layer ID    Burial_axis Degree_axis Condition Length Width Height Pit  
   <dbl> <chr>       <dbl>       <dbl>     <dbl>  <dbl> <dbl>  <dbl> <chr>
 1     1 0               1         290         3    115    70     NA P9   
 2     1 1               1         295         2    102    60     30 P051 
 3     1 2               1         290         2    104    75     60 P051 
 4     1 3               1         290         1    130    82     60 P050 
 5     1 4               1         300         2    140    73     30 P038 
 6     1 5               1         285         2     70    50     35 P050 
 7     1 6               1         310         3     85    55     13 P038 
 8     1 7               1         290         2    130    60     29 P028 
 9     1 8               1         295         2    100    58     15 P038 
10     1 9               1         300         1    130    70     60 P052 
# ℹ 80 more rows
# ℹ 46 more variables: sampled <chr>, start_layer <dbl>, start_depth <dbl>,
#   end_depth <dbl>, start_depth_sure <chr>, old_layer <dbl>, Phase <chr>,
#   Coffin <dbl>, Straw_mat <dbl>, Gender <dbl>, Age <chr>, Agate_bead <dbl>,
#   Golden_bead <dbl>, Glass_bead <dbl>, IndoPacific_bead <dbl>,
#   Glass_earring <dbl>, Big_Metal_ring <dbl>, Small_Metal_ring <dbl>,
#   Wide_Metal_ring <dbl>, Metal_ring <dbl>, Bell <dbl>, Knit <lgl>, …

This could be combined with select() to only show the relevant columns.

select(filter(mortuary_data, Phase == "pre"), ID, Golden_bead, Small_Metal_ring)

# A tibble: 29 × 3
   ID    Golden_bead Small_Metal_ring
   <chr>       <dbl>            <dbl>
 1 0              NA                1
 2 6              NA                2
 3 8              NA               NA
 4 12              2                1
 5 21              1                4
 6 25             NA                3
 7 27             NA                4
 8 28             NA                2
 9 32              6               NA
10 34              4               NA
# ℹ 19 more rows

And now our code is very quickly becomming unreadable for humans… It’s good practice to break up code to avoid having too many nested functions. In the above case we only have one function inside filter(), but that function has quite a few arguments. It’s best to create multiple steps.

pre_euro <- filter(mortuary_data, Phase == "pre")
select(pre_euro, ID, Golden_bead, Small_Metal_ring)

# A tibble: 29 × 3
   ID    Golden_bead Small_Metal_ring
   <chr>       <dbl>            <dbl>
 1 0              NA                1
 2 6              NA                2
 3 8              NA               NA
 4 12              2                1
 5 21              1                4
 6 25             NA                3
 7 27             NA                4
 8 28             NA                2
 9 32              6               NA
10 34              4               NA
# ℹ 19 more rows
…
[1] 2.666667

Missing data in R

You will often see the default setting for removing missing values as FALSE. This may seem strange. Why not just remove them by default for convenience? This is because of the R philosophy that no values should be silently removed. Either a function will not remove NAs, or it will give you a message informing you how many missing values/rows were removed.

If we wanted to also calculate the mean for the other conditions, we could repeat the above steps for Condition == 1 and Condition == 3, but that would quickly get tedious. There is an easier way to calculate multiple means and other descriptive statistics using the summarise() and group_by functions from {dplyr}.

Groups

Groups allow you to calculate statistics and perform operations on groups within the data. For example, we could group the data by the Phase variable and then perform a calculation on each level of Phase. The function to group data is group_by().

group_by(.data = mortuary_data, Phase)

# A tibble: 125 × 55
# Groups:   Phase [6]
   Layer ID    Burial_axis Degree_axis Condition Length Width Height Pit  
   <dbl> <chr>       <dbl>       <dbl>     <dbl>  <dbl> <dbl>  <dbl> <chr>
 1     1 0               1         290         3    115    70     NA P9   
 2     1 1               1         295         2    102    60     30 P051 
 3     1 2               1         290         2    104    75     60 P051 
 4     1 3               1         290         1    130    82     60 P050 
 5     1 4               1         300         2    140    73     30 P038 
 6     1 5               1         285         2     70    50     35 P050 
 7     1 6               1         310         3     85    55     13 P038 
 8     1 7               1         290         2    130    60     29 P028 
 9     1 8               1         295         2    100    58     15 P038 
10     1 9               1         300         1    130    70     60 P052 
# ℹ 115 more rows
# ℹ 46 more variables: sampled <chr>, start_layer <dbl>, start_depth <dbl>,
#   end_depth <dbl>, start_depth_sure <chr>, old_layer <dbl>, Phase <chr>,
#   Coffin <dbl>, Straw_mat <dbl>, Gender <dbl>, Age <chr>, Agate_bead <dbl>,
#   Golden_bead <dbl>, Glass_bead <dbl>, IndoPacific_bead <dbl>,
#   Glass_earring <dbl>, Big_Metal_ring <dbl>, Small_Metal_ring <dbl>,
#   Wide_Metal_ring <dbl>, Metal_ring <dbl>, Bell <dbl>, Knit <lgl>, …
…
Warning: Returning more (or less) than 1 row per `summarise()` group was deprecated in
dplyr 1.1.0.
ℹ Please use `reframe()` instead.
ℹ When switching from `summarise()` to `reframe()`, remember that `reframe()`
  always returns an ungrouped data frame and adjust accordingly.

`summarise()` has grouped output by 'Phase'. You can override using the
`.groups` argument.

# A tibble: 750 × 58
# Groups:   Phase [6]
   Phase Layer ID    Burial_axis Degree_axis Condition Length Width Height Pit  
   <chr> <dbl> <chr>       <dbl>       <dbl>     <dbl>  <dbl> <dbl>  <dbl> <chr>
 1 pre       1 0               1         290         3    115    70     NA P9   
 2 euro      1 1               1         295         2    102    60     30 P051 
 3 post      1 2               1         290         2    104    75     60 P051 
 4 euro      1 3               1         290         1    130    82     60 P050 
 5 euro      1 4               1         300         2    140    73     30 P038 
 6 euro      1 5               1         285         2     70    50     35 P050 
 7 pre       1 6               1         310         3     85    55     13 P038 
 8 euro      1 7               1         290         2    130    60     29 P028 
 9 pre       1 8               1         295         2    100    58     15 P038 
10 post      1 9               1         300         1    130    70     60 P052 
# ℹ 740 more rows
# ℹ 48 more variables: sampled <chr>, start_layer <dbl>, start_depth <dbl>,
#   end_depth <dbl>, start_depth_sure <chr>, old_layer <dbl>, Coffin <dbl>,
#   Straw_mat <dbl>, Gender <dbl>, Age <chr>, Agate_bead <dbl>,
#   Golden_bead <dbl>, Glass_bead <dbl>, IndoPacific_bead <dbl>,
#   Glass_earring <dbl>, Big_Metal_ring <dbl>, Small_Metal_ring <dbl>,
#   Wide_Metal_ring <dbl>, Metal_ring <dbl>, Bell <dbl>, Knit <lgl>, …
…
It’s probably safer to use contains("bead"), just in case not all the variables involving bead end in the suffix ’_bead’. On the other hand you will need to be aware if any of the variables contain the string ‘bead’ somewhere in the variable name without being associated with beads (for example, the code would include a variable named beadle).

Regular expression

It’s also possible to construct a regular expression using matches().

To check which variables we are actually selecting, we can combine our selection helper with select().

mortuary_data |>
  select(ends_with("bead"))

# A tibble: 125 × 4
   Agate_bead Golden_bead Glass_bead IndoPacific_bead
        <dbl>       <dbl>      <dbl>            <dbl>
 1         NA          NA         NA               NA
 2         NA          NA         NA               NA
 3         NA          NA         NA               NA
 4         NA           5         NA               NA
 5         NA           2         NA               NA
 6         NA           2         NA                1
 7         NA          NA          1               NA
 8         NA           2          1               NA
 9          8          NA         NA                6
10         NA           2         NA             1526
# ℹ 115 more rows
…
$a_vector
  [1] 70 60 75 82 73 50 55 60 58 70 60 NA 60 45 60 70 NA 60 47 70 55 70 45 70 80
 [26] 45 75 70 73 58 45 60 45 60 57 45 55 65 45 75 50 50 50 70 NA 70 75 60 70 56
 [51] NA 70 53 56 35 40 60 70 90 40 65 65 55 45 65 60 NA 60 65 70 75 40 60 40 45
 [76] 70 NA 65 55 50 60 70 45 NA NA NA 83 60 60 50 65 NA 50 60 70 85 55 70 NA 60
[101] 53 60 55 70 47 60 40 55 40 20 50 25 46 78 55 55 60 45 NA NA 60 35 75 60 40

$a_data_frame
# A tibble: 125 × 55
   Layer ID    Burial_axis Degree_axis Condition Length Width Height Pit  
   <dbl> <chr>       <dbl>       <dbl>     <dbl>  <dbl> <dbl>  <dbl> <chr>
 1     1 0               1         290         3    115    70     NA P9   
 2     1 1               1         295         2    102    60     30 P051 
 3     1 2               1         290         2    104    75     60 P051 
 4     1 3               1         290         1    130    82     60 P050 
 5     1 4               1         300         2    140    73     30 P038 
 6     1 5               1         285         2     70    50     35 P050 
 7     1 6               1         310         3     85    55     13 P038 
 8     1 7               1         290         2    130    60     29 P028 
 9     1 8               1         295         2    100    58     15 P038 
10     1 9               1         300         1    130    70     60 P052 
# ℹ 115 more rows
# ℹ 46 more variables: sampled <chr>, start_layer <dbl>, start_depth <dbl>,
#   end_depth <dbl>, start_depth_sure <chr>, old_layer <dbl>, Phase <chr>,
#   Coffin <dbl>, Straw_mat <dbl>, Gender <dbl>, Age <chr>, Agate_bead <dbl>,
#   Golden_bead <dbl>, Glass_bead <dbl>, IndoPacific_bead <dbl>,
#   Glass_earring <dbl>, Big_Metal_ring <dbl>, Small_Metal_ring <dbl>,
#   Wide_Metal_ring <dbl>, Metal_ring <dbl>, Bell <dbl>, Knit <lgl>, …
…
Let’s check out the Golden_bead variable.

artefact_long$Golden_bead

Warning: Unknown or uninitialised column: `Golden_bead`.

NULL

The column Golden_bead no longer exists. Instead we have two new columns, name and value which contain the name of our artefact and the count of that artefact for each burial, respectively. We also have a data frame with twice as many rows as our original, because now each row is an artefact, not a burial.

artefact_long

# A tibble: 250 × 4
   ID    Phase name        value
   <chr> <chr> <chr>       <dbl>
 1 0     pre   Agate_bead     NA
 2 0     pre   Golden_bead    NA
 3 1     euro  Agate_bead     NA
 4 1     euro  Golden_bead    NA
 5 2     post  Agate_bead     NA
 6 2     post  Golden_bead    NA
 7 3     euro  Agate_bead     NA
 8 3     euro  Golden_bead     5
 9 4     euro  Agate_bead     NA
10 4     euro  Golden_bead     2
# ℹ 240 more rows
…
This is the same as we before, but with simpler code and a more readable output.

artefact_long |>
  group_by(artefact, Phase) |>
  summarise(
    mean = median(count, na.rm = T),
    sd = sd(count, na.rm = T)
  )

`summarise()` has grouped output by 'artefact'. You can override using the
`.groups` argument.

# A tibble: 84 × 4
# Groups:   artefact [14]
   artefact   Phase      mean     sd
   <chr>      <chr>     <dbl>  <dbl>
 1 Agate_bead chi          NA NA    
 2 Agate_bead disturbed    NA NA    
 3 Agate_bead euro          3  4.05 
 4 Agate_bead post         NA NA    
 5 Agate_bead pre           4  2.35 
 6 Agate_bead <NA>          2 13.9  
 7 Bell       chi          NA NA    
 8 Bell       disturbed    NA NA    
 9 Bell       euro          1  0.548
10 Bell       post         NA NA    
# ℹ 74 more rows
…
